C:\Bitbucket\presentation\serve\presentation\src\main\java\com\projects\presentation\controller\ProjectController.java
C:\Bitbucket\presentation\serve\presentation\src\main\java\com\projects\presentation\model\dto\ProjectDto.java
C:\Bitbucket\presentation\serve\presentation\src\main\java\com\projects\presentation\model\transformation\ProjectTransformation.java
C:\Bitbucket\presentation\serve\presentation\src\main\java\com\projects\presentation\repository\ProjectRepository.java
C:\Bitbucket\presentation\serve\presentation\src\main\java\com\projects\presentation\service\ProjectService.java
C:\Bitbucket\presentation\serve\presentation\src\main\java\com\projects\presentation\service\impl\ProjectServiceImpl.java
C:\Bitbucket\presentation\serve\presentation\src\main\java\com\projects\presentation\PresentationApplication.java
C:\Bitbucket\presentation\serve\presentation\src\main\java\com\projects\presentation\model\entity\Project.java
